"order_id","sales_id","item_id","quantity"
1,1,1,2
2,1,2,
3,1,3,1
4,2,1,1
5,2,2,1
6,2,3,2
7,3,1,3
8,3,2,
9,3,3,
10,4,1,2
11,4,2,1
12,4,3,
13,5,1,1
14,5,2,2
15,5,3,
16,6,1,2
17,6,2,2
18,6,3,1
19,7,1,1
20,7,2,1
21,7,3,1
22,8,1,
23,8,2,
24,8,3,
25,9,1,
26,9,2,1
27,9,3,1
28,10,1,
29,10,2,1
30,10,3,1
31,11,1,2
32,11,2,1
33,11,3,1
34,12,1,2
35,12,2,1
36,12,3,
37,13,1,1
38,13,2,
39,13,3,
40,14,1,1
41,14,2,1
42,14,3,
43,15,1,
44,15,2,1
45,15,3,1
46,16,1,1
47,16,2,3
48,16,3,1
49,17,1,
50,17,2,1
51,17,3,
52,18,1,
53,18,2,3
54,18,3,
55,19,1,1
56,19,2,
57,19,3,
58,20,1,2
59,20,2,2
60,20,3,
61,21,1,1
62,21,2,3
63,21,3,
64,22,1,1
65,22,2,
66,22,3,1
67,23,1,2
68,23,2,
69,23,3,1
70,24,1,1
71,24,2,3
72,24,3,
73,25,1,
74,25,2,
75,25,3,1
76,26,1,
77,26,2,1
78,26,3,1
79,27,1,1
80,27,2,1
81,27,3,4
82,28,1,1
83,28,2,1
84,28,3,1
85,29,1,
86,29,2,3
87,29,3,1
88,30,1,1
89,30,2,
90,30,3,1
91,31,1,
92,31,2,2
93,31,3,
94,32,1,
95,32,2,1
96,32,3,
97,33,1,1
98,33,2,1
99,33,3,1
100,34,1,1
101,34,2,
102,34,3,1
103,35,1,
104,35,2,
105,35,3,
106,36,1,2
107,36,2,3
108,36,3,1
109,37,1,
110,37,2,
111,37,3,
112,38,1,
113,38,2,1
114,38,3,
115,39,1,1
116,39,2,
117,39,3,1
118,40,1,8
119,40,2,2
120,40,3,1
121,41,1,
122,41,2,
123,41,3,2
124,42,1,2
125,42,2,2
126,42,3,
127,43,1,2
128,43,2,1
129,43,3,3
130,44,1,1
131,44,2,1
132,44,3,2
133,45,1,3
134,45,2,1
135,45,3,
136,46,1,
137,46,2,
138,46,3,2
139,47,1,2
140,47,2,
141,47,3,1
142,48,1,
143,48,2,
144,48,3,
145,49,1,1
146,49,2,
147,49,3,3
148,50,1,1
149,50,2,
150,50,3,1
151,51,1,2
152,51,2,
153,51,3,
154,52,1,
155,52,2,
156,52,3,
157,53,1,1
158,53,2,1
159,53,3,1
160,54,1,1
161,54,2,1
162,54,3,3
163,55,1,
164,55,2,
165,55,3,
166,56,1,2
167,56,2,1
168,56,3,
169,57,1,
170,57,2,
171,57,3,3
172,58,1,
173,58,2,
174,58,3,2
175,59,1,1
176,59,2,2
177,59,3,4
178,60,1,
179,60,2,
180,60,3,1
181,61,1,2
182,61,2,1
183,61,3,1
184,62,1,
185,62,2,1
186,62,3,
187,63,1,1
188,63,2,
189,63,3,
190,64,1,
191,64,2,1
192,64,3,1
193,65,1,
194,65,2,1
195,65,3,3
196,66,1,
197,66,2,1
198,66,3,
199,67,1,2
200,67,2,
201,67,3,1
202,68,1,
203,68,2,
204,68,3,
205,69,1,
206,69,2,1
207,69,3,2
208,70,1,1
209,70,2,2
210,70,3,1
211,71,1,
212,71,2,2
213,71,3,3
214,72,1,1
215,72,2,1
216,72,3,1
217,73,1,1
218,73,2,
219,73,3,2
220,74,1,4
221,74,2,1
222,74,3,1
223,75,1,1
224,75,2,3
225,75,3,2
226,76,1,
227,76,2,
228,76,3,
229,77,1,2
230,77,2,1
231,77,3,2
232,78,1,
233,78,2,1
234,78,3,
235,79,1,
236,79,2,1
237,79,3,
238,80,1,2
239,80,2,1
240,80,3,
241,81,1,
242,81,2,2
243,81,3,2
244,82,1,
245,82,2,2
246,82,3,1
247,83,1,3
248,83,2,1
249,83,3,1
250,84,1,1
251,84,2,
252,84,3,1
253,85,1,1
254,85,2,1
255,85,3,
256,86,1,
257,86,2,
258,86,3,2
259,87,1,
260,87,2,
261,87,3,
262,88,1,1
263,88,2,1
264,88,3,
265,89,1,2
266,89,2,
267,89,3,2
268,90,1,1
269,90,2,4
270,90,3,1
271,91,1,1
272,91,2,4
273,91,3,1
274,92,1,1
275,92,2,
276,92,3,
277,93,1,4
278,93,2,
279,93,3,
280,94,1,1
281,94,2,1
282,94,3,1
283,95,1,
284,95,2,1
285,95,3,1
286,96,1,
287,96,2,1
288,96,3,
289,97,1,
290,97,2,1
291,97,3,
292,98,1,2
293,98,2,
294,98,3,2
295,99,1,
296,99,2,1
297,99,3,
298,100,1,
299,100,2,2
300,100,3,1
301,101,1,1
302,101,2,1
303,101,3,
304,102,1,
305,102,2,3
306,102,3,
307,103,1,1
308,103,2,
309,103,3,1
310,104,1,
311,104,2,1
312,104,3,
313,105,1,
314,105,2,
315,105,3,3
316,106,1,
317,106,2,
318,106,3,2
319,107,1,1
320,107,2,1
321,107,3,1
322,108,1,1
323,108,2,1
324,108,3,
325,109,1,
326,109,2,1
327,109,3,2
328,110,1,
329,110,2,
330,110,3,1
331,111,1,3
332,111,2,1
333,111,3,1
334,112,1,
335,112,2,4
336,112,3,
337,113,1,1
338,113,2,1
339,113,3,4
340,114,1,1
341,114,2,2
342,114,3,
343,115,1,
344,115,2,
345,115,3,1
346,116,1,1
347,116,2,1
348,116,3,
349,117,1,
350,117,2,1
351,117,3,1
352,118,1,
353,118,2,1
354,118,3,
355,119,1,1
356,119,2,2
357,119,3,
358,120,1,
359,120,2,
360,120,3,
361,121,1,
362,121,2,
363,121,3,
364,122,1,3
365,122,2,4
366,122,3,
367,123,1,2
368,123,2,
369,123,3,
370,124,1,1
371,124,2,1
372,124,3,
373,125,1,1
374,125,2,3
375,125,3,1
376,126,1,
377,126,2,1
378,126,3,4
379,127,1,2
380,127,2,1
381,127,3,1
382,128,1,1
383,128,2,1
384,128,3,2
385,129,1,1
386,129,2,1
387,129,3,3
388,130,1,
389,130,2,1
390,130,3,1
391,131,1,1
392,131,2,1
393,131,3,1
394,132,1,
395,132,2,1
396,132,3,
397,133,1,1
398,133,2,1
399,133,3,1
400,134,1,1
401,134,2,7
402,134,3,
403,135,1,2
404,135,2,3
405,135,3,1
406,136,1,
407,136,2,
408,136,3,
409,137,1,1
410,137,2,
411,137,3,3
412,138,1,2
413,138,2,
414,138,3,1
415,139,1,
416,139,2,1
417,139,3,1
418,140,1,
419,140,2,
420,140,3,
421,141,1,1
422,141,2,
423,141,3,
424,142,1,
425,142,2,
426,142,3,2
427,143,1,1
428,143,2,2
429,143,3,1
430,144,1,3
431,144,2,
432,144,3,1
433,145,1,
434,145,2,
435,145,3,1
436,146,1,
437,146,2,2
438,146,3,1
439,147,1,1
440,147,2,2
441,147,3,2
442,148,1,1
443,148,2,1
444,148,3,
445,149,1,
446,149,2,
447,149,3,
448,150,1,2
449,150,2,1
450,150,3,1
451,151,1,
452,151,2,
453,151,3,2
454,152,1,
455,152,2,1
456,152,3,4
457,153,1,
458,153,2,
459,153,3,
460,154,1,1
461,154,2,1
462,154,3,
463,155,1,
464,155,2,1
465,155,3,
466,156,1,2
467,156,2,
468,156,3,2
469,157,1,2
470,157,2,1
471,157,3,
472,158,1,1
473,158,2,1
474,158,3,2
475,159,1,1
476,159,2,
477,159,3,1
478,160,1,2
479,160,2,1
480,160,3,1
481,161,1,
482,161,2,
483,161,3,
484,162,1,
485,162,2,1
486,162,3,
487,163,1,
488,163,2,1
489,163,3,3
490,164,1,3
491,164,2,4
492,164,3,1
493,165,1,
494,165,2,1
495,165,3,3
496,166,1,4
497,166,2,1
498,166,3,
499,167,1,
500,167,2,1
501,167,3,
502,168,1,
503,168,2,
504,168,3,1
505,169,1,
506,169,2,2
507,169,3,
508,170,1,1
509,170,2,2
510,170,3,1
511,171,1,1
512,171,2,3
513,171,3,1
514,172,1,1
515,172,2,
516,172,3,
517,173,1,3
518,173,2,2
519,173,3,1
520,174,1,
521,174,2,
522,174,3,
523,175,1,4
524,175,2,
525,175,3,1
526,176,1,2
527,176,2,1
528,176,3,3
529,177,1,1
530,177,2,1
531,177,3,2
532,178,1,1
533,178,2,
534,178,3,1
535,179,1,
536,179,2,1
537,179,3,1
538,180,1,1
539,180,2,1
540,180,3,
541,181,1,2
542,181,2,
543,181,3,
544,182,1,
545,182,2,2
546,182,3,2
547,183,1,1
548,183,2,
549,183,3,2
550,184,1,1
551,184,2,
552,184,3,3
553,185,1,2
554,185,2,
555,185,3,
556,186,1,1
557,186,2,
558,186,3,1
559,187,1,
560,187,2,1
561,187,3,
562,188,1,1
563,188,2,
564,188,3,1
565,189,1,1
566,189,2,1
567,189,3,1
568,190,1,1
569,190,2,
570,190,3,
571,191,1,1
572,191,2,3
573,191,3,2
574,192,1,1
575,192,2,
576,192,3,2
577,193,1,
578,193,2,3
579,193,3,
580,194,1,5
581,194,2,1
582,194,3,
583,195,1,
584,195,2,1
585,195,3,1
586,196,1,1
587,196,2,1
588,196,3,1
589,197,1,2
590,197,2,2
591,197,3,4
592,198,1,2
593,198,2,1
594,198,3,1
595,199,1,1
596,199,2,4
597,199,3,1
598,200,1,
599,200,2,1
600,200,3,1
601,201,1,2
602,201,2,1
603,201,3,2
604,202,1,1
605,202,2,
606,202,3,3
607,203,1,1
608,203,2,
609,203,3,1
610,204,1,1
611,204,2,1
612,204,3,
613,205,1,1
614,205,2,
615,205,3,
616,206,1,1
617,206,2,
618,206,3,5
619,207,1,1
620,207,2,1
621,207,3,1
622,208,1,
623,208,2,
624,208,3,
625,209,1,
626,209,2,2
627,209,3,1
628,210,1,1
629,210,2,
630,210,3,
631,211,1,3
632,211,2,2
633,211,3,1
634,212,1,1
635,212,2,
636,212,3,
637,213,1,
638,213,2,1
639,213,3,1
640,214,1,1
641,214,2,1
642,214,3,
643,215,1,1
644,215,2,2
645,215,3,
646,216,1,3
647,216,2,1
648,216,3,3
649,217,1,1
650,217,2,1
651,217,3,
652,218,1,
653,218,2,
654,218,3,2
655,219,1,1
656,219,2,
657,219,3,1
658,220,1,1
659,220,2,
660,220,3,1
661,221,1,1
662,221,2,
663,221,3,
664,222,1,1
665,222,2,1
666,222,3,
667,223,1,1
668,223,2,1
669,223,3,1
670,224,1,1
671,224,2,3
672,224,3,5
673,225,1,1
674,225,2,4
675,225,3,1
676,226,1,2
677,226,2,2
678,226,3,3
679,227,1,1
680,227,2,3
681,227,3,1
682,228,1,1
683,228,2,
684,228,3,
685,229,1,
686,229,2,
687,229,3,3
688,230,1,1
689,230,2,4
690,230,3,2
691,231,1,
692,231,2,
693,231,3,1
694,232,1,1
695,232,2,1
696,232,3,1
697,233,1,
698,233,2,
699,233,3,1
700,234,1,4
701,234,2,
702,234,3,
703,235,1,
704,235,2,1
705,235,3,
706,236,1,1
707,236,2,
708,236,3,2
709,237,1,
710,237,2,4
711,237,3,2
712,238,1,
713,238,2,1
714,238,3,1
715,239,1,
716,239,2,
717,239,3,2
718,240,1,1
719,240,2,2
720,240,3,1
721,241,1,1
722,241,2,1
723,241,3,1
724,242,1,
725,242,2,
726,242,3,3
727,243,1,
728,243,2,1
729,243,3,1
730,244,1,
731,244,2,1
732,244,3,3
733,245,1,1
734,245,2,
735,245,3,
736,246,1,2
737,246,2,1
738,246,3,3
739,247,1,
740,247,2,2
741,247,3,5
742,248,1,1
743,248,2,1
744,248,3,1
745,249,1,1
746,249,2,1
747,249,3,2
748,250,1,1
749,250,2,
750,250,3,
751,251,1,4
752,251,2,
753,251,3,
754,252,1,5
755,252,2,
756,252,3,2
757,253,1,2
758,253,2,1
759,253,3,2
760,254,1,1
761,254,2,1
762,254,3,2
763,255,1,1
764,255,2,
765,255,3,
766,256,1,1
767,256,2,2
768,256,3,
769,257,1,1
770,257,2,
771,257,3,1
772,258,1,
773,258,2,1
774,258,3,1
775,259,1,1
776,259,2,1
777,259,3,1
778,260,1,
779,260,2,
780,260,3,2
781,261,1,2
782,261,2,
783,261,3,1
784,262,1,5
785,262,2,2
786,262,3,1
787,263,1,
788,263,2,1
789,263,3,
790,264,1,1
791,264,2,
792,264,3,
793,265,1,
794,265,2,1
795,265,3,1
796,266,1,
797,266,2,
798,266,3,1
799,267,1,
800,267,2,
801,267,3,1
802,268,1,
803,268,2,
804,268,3,
805,269,1,
806,269,2,2
807,269,3,3
808,270,1,
809,270,2,1
810,270,3,
811,271,1,2
812,271,2,1
813,271,3,1
814,272,1,
815,272,2,
816,272,3,2
817,273,1,1
818,273,2,1
819,273,3,
820,274,1,
821,274,2,
822,274,3,2
823,275,1,
824,275,2,1
825,275,3,
826,276,1,
827,276,2,
828,276,3,2
829,277,1,1
830,277,2,3
831,277,3,4
832,278,1,1
833,278,2,1
834,278,3,1
835,279,1,1
836,279,2,1
837,279,3,
838,280,1,1
839,280,2,2
840,280,3,
841,281,1,
842,281,2,1
843,281,3,1
844,282,1,
845,282,2,1
846,282,3,4
847,283,1,2
848,283,2,2
849,283,3,1
850,284,1,
851,284,2,
852,284,3,1
853,285,1,1
854,285,2,1
855,285,3,1
856,286,1,
857,286,2,2
858,286,3,
859,287,1,1
860,287,2,2
861,287,3,
862,288,1,1
863,288,2,
864,288,3,1
865,289,1,
866,289,2,
867,289,3,5
868,290,1,1
869,290,2,
870,290,3,1
871,291,1,1
872,291,2,
873,291,3,1
874,292,1,2
875,292,2,
876,292,3,2
877,293,1,1
878,293,2,1
879,293,3,
880,294,1,
881,294,2,2
882,294,3,1
883,295,1,1
884,295,2,2
885,295,3,2
886,296,1,
887,296,2,
888,296,3,
889,297,1,1
890,297,2,1
891,297,3,3
892,298,1,2
893,298,2,1
894,298,3,
895,299,1,
896,299,2,
897,299,3,
898,300,1,2
899,300,2,2
900,300,3,
901,301,1,1
902,301,2,1
903,301,3,1
904,302,1,1
905,302,2,4
906,302,3,2
907,303,1,
908,303,2,
909,303,3,
910,304,1,2
911,304,2,1
912,304,3,1
913,305,1,1
914,305,2,1
915,305,3,
916,306,1,
917,306,2,2
918,306,3,1
919,307,1,3
920,307,2,1
921,307,3,1
922,308,1,4
923,308,2,1
924,308,3,3
925,309,1,
926,309,2,1
927,309,3,1
928,310,1,1
929,310,2,
930,310,3,
931,311,1,1
932,311,2,1
933,311,3,
934,312,1,
935,312,2,1
936,312,3,1
937,313,1,
938,313,2,1
939,313,3,2
940,314,1,
941,314,2,
942,314,3,1
943,315,1,1
944,315,2,
945,315,3,
946,316,1,2
947,316,2,
948,316,3,
949,317,1,
950,317,2,
951,317,3,2
952,318,1,
953,318,2,1
954,318,3,1
955,319,1,
956,319,2,1
957,319,3,1
958,320,1,2
959,320,2,2
960,320,3,3
961,321,1,1
962,321,2,3
963,321,3,2
964,322,1,
965,322,2,
966,322,3,1
967,323,1,1
968,323,2,
969,323,3,2
970,324,1,4
971,324,2,1
972,324,3,1
973,325,1,2
974,325,2,2
975,325,3,
976,326,1,2
977,326,2,
978,326,3,
979,327,1,
980,327,2,
981,327,3,
982,328,1,2
983,328,2,1
984,328,3,2
985,329,1,
986,329,2,1
987,329,3,1
988,330,1,1
989,330,2,
990,330,3,2
991,331,1,1
992,331,2,1
993,331,3,
994,332,1,
995,332,2,
996,332,3,1
997,333,1,3
998,333,2,
999,333,3,1
1000,334,1,1
1001,334,2,
1002,334,3,1
1003,335,1,1
1004,335,2,1
1005,335,3,2
1006,336,1,2
1007,336,2,
1008,336,3,1
1009,337,1,1
1010,337,2,1
1011,337,3,
1012,338,1,
1013,338,2,1
1014,338,3,1
1015,339,1,
1016,339,2,
1017,339,3,
1018,340,1,2
1019,340,2,2
1020,340,3,
1021,341,1,2
1022,341,2,
1023,341,3,2
1024,342,1,
1025,342,2,
1026,342,3,
1027,343,1,1
1028,343,2,1
1029,343,3,1
1030,344,1,1
1031,344,2,2
1032,344,3,
1033,345,1,1
1034,345,2,1
1035,345,3,
1036,346,1,2
1037,346,2,2
1038,346,3,1
1039,347,1,
1040,347,2,
1041,347,3,2
1042,348,1,1
1043,348,2,1
1044,348,3,
1045,349,1,1
1046,349,2,1
1047,349,3,1
1048,350,1,
1049,350,2,1
1050,350,3,1
1051,351,1,
1052,351,2,
1053,351,3,1
1054,352,1,1
1055,352,2,2
1056,352,3,1
1057,353,1,
1058,353,2,1
1059,353,3,2
1060,354,1,1
1061,354,2,2
1062,354,3,1
1063,355,1,2
1064,355,2,1
1065,355,3,
1066,356,1,1
1067,356,2,2
1068,356,3,2
1069,357,1,
1070,357,2,1
1071,357,3,7
1072,358,1,2
1073,358,2,1
1074,358,3,2
1075,359,1,
1076,359,2,
1077,359,3,1
1078,360,1,2
1079,360,2,2
1080,360,3,
1081,361,1,
1082,361,2,1
1083,361,3,
1084,362,1,1
1085,362,2,2
1086,362,3,
1087,363,1,
1088,363,2,1
1089,363,3,1
1090,364,1,
1091,364,2,2
1092,364,3,
1093,365,1,2
1094,365,2,1
1095,365,3,
1096,366,1,1
1097,366,2,1
1098,366,3,
1099,367,1,2
1100,367,2,1
1101,367,3,1
1102,368,1,1
1103,368,2,1
1104,368,3,1
1105,369,1,1
1106,369,2,1
1107,369,3,
1108,370,1,1
1109,370,2,
1110,370,3,3
1111,371,1,1
1112,371,2,
1113,371,3,1
1114,372,1,1
1115,372,2,1
1116,372,3,
1117,373,1,
1118,373,2,
1119,373,3,1
1120,374,1,
1121,374,2,
1122,374,3,1
1123,375,1,
1124,375,2,
1125,375,3,4
1126,376,1,3
1127,376,2,1
1128,376,3,
1129,377,1,
1130,377,2,1
1131,377,3,
1132,378,1,1
1133,378,2,1
1134,378,3,2
1135,379,1,1
1136,379,2,1
1137,379,3,2
1138,380,1,2
1139,380,2,
1140,380,3,1
1141,381,1,
1142,381,2,
1143,381,3,5
1144,382,1,1
1145,382,2,4
1146,382,3,
1147,383,1,
1148,383,2,
1149,383,3,
1150,384,1,1
1151,384,2,1
1152,384,3,
1153,385,1,2
1154,385,2,2
1155,385,3,1
1156,386,1,2
1157,386,2,2
1158,386,3,1
1159,387,1,2
1160,387,2,2
1161,387,3,2
1162,388,1,
1163,388,2,1
1164,388,3,2
1165,389,1,2
1166,389,2,1
1167,389,3,
1168,390,1,1
1169,390,2,2
1170,390,3,3
1171,391,1,1
1172,391,2,2
1173,391,3,2
1174,392,1,
1175,392,2,2
1176,392,3,1
1177,393,1,2
1178,393,2,3
1179,393,3,
1180,394,1,1
1181,394,2,2
1182,394,3,1
1183,395,1,1
1184,395,2,2
1185,395,3,
1186,396,1,
1187,396,2,1
1188,396,3,1
1189,397,1,
1190,397,2,
1191,397,3,1
1192,398,1,
1193,398,2,
1194,398,3,1
1195,399,1,
1196,399,2,1
1197,399,3,2
1198,400,1,1
1199,400,2,
1200,400,3,3
1201,401,1,2
1202,401,2,
1203,401,3,
1204,402,1,
1205,402,2,
1206,402,3,
1207,403,1,1
1208,403,2,
1209,403,3,3
1210,404,1,1
1211,404,2,2
1212,404,3,1
1213,405,1,1
1214,405,2,
1215,405,3,1
1216,406,1,1
1217,406,2,
1218,406,3,1
1219,407,1,1
1220,407,2,
1221,407,3,1
1222,408,1,
1223,408,2,3
1224,408,3,2
1225,409,1,
1226,409,2,
1227,409,3,5
1228,410,1,1
1229,410,2,
1230,410,3,1
1231,411,1,2
1232,411,2,1
1233,411,3,3
1234,412,1,1
1235,412,2,1
1236,412,3,1
1237,413,1,1
1238,413,2,
1239,413,3,1
1240,414,1,1
1241,414,2,
1242,414,3,1
1243,415,1,1
1244,415,2,
1245,415,3,1
1246,416,1,
1247,416,2,4
1248,416,3,
1249,417,1,1
1250,417,2,1
1251,417,3,2
1252,418,1,
1253,418,2,5
1254,418,3,1
1255,419,1,
1256,419,2,1
1257,419,3,1
1258,420,1,4
1259,420,2,1
1260,420,3,
1261,421,1,
1262,421,2,3
1263,421,3,
1264,422,1,1
1265,422,2,
1266,422,3,
1267,423,1,2
1268,423,2,
1269,423,3,
1270,424,1,1
1271,424,2,1
1272,424,3,
1273,425,1,
1274,425,2,
1275,425,3,2
1276,426,1,
1277,426,2,3
1278,426,3,1
1279,427,1,1
1280,427,2,1
1281,427,3,3
1282,428,1,
1283,428,2,
1284,428,3,1
1285,429,1,1
1286,429,2,
1287,429,3,
1288,430,1,2
1289,430,2,
1290,430,3,
1291,431,1,2
1292,431,2,1
1293,431,3,1
1294,432,1,1
1295,432,2,
1296,432,3,1
1297,433,1,
1298,433,2,2
1299,433,3,
1300,434,1,
1301,434,2,2
1302,434,3,1
1303,435,1,2
1304,435,2,2
1305,435,3,
1306,436,1,2
1307,436,2,
1308,436,3,1
1309,437,1,1
1310,437,2,1
1311,437,3,1
1312,438,1,1
1313,438,2,1
1314,438,3,1
1315,439,1,3
1316,439,2,1
1317,439,3,
1318,440,1,
1319,440,2,1
1320,440,3,3
1321,441,1,2
1322,441,2,
1323,441,3,3
1324,442,1,
1325,442,2,3
1326,442,3,1
1327,443,1,3
1328,443,2,3
1329,443,3,2
1330,444,1,
1331,444,2,
1332,444,3,
1333,445,1,
1334,445,2,1
1335,445,3,1
1336,446,1,1
1337,446,2,1
1338,446,3,2
1339,447,1,3
1340,447,2,2
1341,447,3,1
1342,448,1,
1343,448,2,1
1344,448,3,1
1345,449,1,1
1346,449,2,2
1347,449,3,
1348,450,1,1
1349,450,2,
1350,450,3,1
1351,451,1,1
1352,451,2,1
1353,451,3,
1354,452,1,5
1355,452,2,2
1356,452,3,1
1357,453,1,2
1358,453,2,
1359,453,3,2
1360,454,1,1
1361,454,2,
1362,454,3,
1363,455,1,
1364,455,2,2
1365,455,3,1
1366,456,1,2
1367,456,2,3
1368,456,3,5
1369,457,1,
1370,457,2,
1371,457,3,1
1372,458,1,1
1373,458,2,2
1374,458,3,
1375,459,1,
1376,459,2,1
1377,459,3,3
1378,460,1,
1379,460,2,1
1380,460,3,
1381,461,1,1
1382,461,2,
1383,461,3,1
1384,462,1,2
1385,462,2,
1386,462,3,2
1387,463,1,
1388,463,2,
1389,463,3,1
1390,464,1,1
1391,464,2,1
1392,464,3,1
1393,465,1,1
1394,465,2,2
1395,465,3,2
1396,466,1,2
1397,466,2,2
1398,466,3,
1399,467,1,1
1400,467,2,1
1401,467,3,1
1402,468,1,1
1403,468,2,2
1404,468,3,1
1405,469,1,1
1406,469,2,1
1407,469,3,
1408,470,1,1
1409,470,2,2
1410,470,3,3
1411,471,1,3
1412,471,2,
1413,471,3,3
1414,472,1,
1415,472,2,
1416,472,3,1
1417,473,1,1
1418,473,2,1
1419,473,3,2
1420,474,1,1
1421,474,2,2
1422,474,3,1
1423,475,1,
1424,475,2,
1425,475,3,1
1426,476,1,
1427,476,2,
1428,476,3,5
1429,477,1,1
1430,477,2,1
1431,477,3,
1432,478,1,
1433,478,2,3
1434,478,3,1
1435,479,1,2
1436,479,2,
1437,479,3,
1438,480,1,
1439,480,2,
1440,480,3,
1441,481,1,1
1442,481,2,3
1443,481,3,
1444,482,1,1
1445,482,2,
1446,482,3,1
1447,483,1,
1448,483,2,
1449,483,3,
1450,484,1,2
1451,484,2,
1452,484,3,5
1453,485,1,2
1454,485,2,1
1455,485,3,
1456,486,1,
1457,486,2,
1458,486,3,
1459,487,1,
1460,487,2,1
1461,487,3,1
1462,488,1,1
1463,488,2,2
1464,488,3,3
1465,489,1,
1466,489,2,1
1467,489,3,2
1468,490,1,1
1469,490,2,1
1470,490,3,
1471,491,1,2
1472,491,2,1
1473,491,3,3
1474,492,1,1
1475,492,2,
1476,492,3,
1477,493,1,3
1478,493,2,1
1479,493,3,
1480,494,1,
1481,494,2,1
1482,494,3,2
1483,495,1,1
1484,495,2,
1485,495,3,1
1486,496,1,2
1487,496,2,
1488,496,3,1
1489,497,1,2
1490,497,2,4
1491,497,3,1
1492,498,1,3
1493,498,2,
1494,498,3,1
1495,499,1,2
1496,499,2,
1497,499,3,2
1498,500,1,1
1499,500,2,2
1500,500,3,4
