"sales_id","customer_id"
1,10
2,85
3,42
4,93
5,75
6,19
7,74
8,28
9,77
10,37
11,51
12,54
13,25
14,16
15,81
16,63
17,34
18,34
19,6
20,26
21,8
22,33
23,30
24,82
25,76
26,98
27,95
28,22
29,7
30,18
31,74
32,12
33,40
34,37
35,12
36,7
37,8
38,35
39,28
40,87
41,25
42,70
43,79
44,86
45,15
46,19
47,40
48,5
49,6
50,49
51,28
52,20
53,7
54,7
55,67
56,21
57,10
58,4
59,41
60,29
61,59
62,53
63,86
64,90
65,43
66,29
67,84
68,96
69,91
70,39
71,91
72,27
73,43
74,24
75,2
76,91
77,6
78,21
79,83
80,93
81,13
82,15
83,89
84,56
85,25
86,47
87,50
88,55
89,38
90,12
91,36
92,37
93,63
94,77
95,41
96,86
97,32
98,80
99,75
100,29
101,9
102,73
103,49
104,48
105,77
106,64
107,41
108,34
109,40
110,1
111,10
112,56
113,32
114,29
115,36
116,86
117,45
118,63
119,73
120,73
121,68
122,11
123,90
124,10
125,8
126,49
127,95
128,91
129,65
130,63
131,30
132,66
133,20
134,72
135,95
136,68
137,32
138,55
139,83
140,32
141,97
142,58
143,94
144,34
145,90
146,17
147,97
148,30
149,13
150,69
151,21
152,63
153,35
154,38
155,80
156,25
157,51
158,96
159,16
160,72
161,88
162,73
163,2
164,70
165,81
166,24
167,93
168,33
169,42
170,15
171,5
172,3
173,78
174,9
175,14
176,15
177,31
178,80
179,73
180,60
181,47
182,57
183,5
184,20
185,31
186,61
187,91
188,4
189,36
190,26
191,43
192,20
193,13
194,62
195,57
196,12
197,75
198,4
199,52
200,67
201,86
202,94
203,67
204,75
205,23
206,26
207,82
208,3
209,47
210,10
211,76
212,81
213,67
214,15
215,44
216,69
217,7
218,16
219,92
220,8
221,75
222,74
223,96
224,76
225,48
226,66
227,15
228,66
229,55
230,89
231,80
232,60
233,74
234,87
235,93
236,44
237,73
238,79
239,83
240,93
241,58
242,10
243,93
244,87
245,63
246,43
247,72
248,77
249,66
250,58
251,66
252,45
253,90
254,100
255,2
256,95
257,83
258,90
259,35
260,92
261,75
262,93
263,89
264,80
265,21
266,56
267,11
268,32
269,23
270,49
271,68
272,49
273,80
274,93
275,6
276,17
277,96
278,59
279,16
280,26
281,85
282,84
283,77
284,56
285,1
286,92
287,7
288,85
289,43
290,20
291,96
292,79
293,3
294,80
295,45
296,70
297,96
298,7
299,74
300,89
301,88
302,29
303,2
304,71
305,86
306,94
307,33
308,33
309,34
310,74
311,67
312,79
313,51
314,86
315,9
316,56
317,91
318,59
319,76
320,89
321,7
322,100
323,43
324,57
325,20
326,90
327,22
328,82
329,80
330,81
331,12
332,63
333,48
334,21
335,30
336,36
337,35
338,47
339,67
340,13
341,66
342,32
343,17
344,26
345,83
346,48
347,51
348,16
349,22
350,84
351,73
352,69
353,65
354,45
355,89
356,78
357,29
358,48
359,8
360,78
361,60
362,76
363,9
364,22
365,69
366,79
367,25
368,18
369,71
370,64
371,20
372,22
373,39
374,26
375,8
376,63
377,15
378,53
379,96
380,58
381,17
382,75
383,61
384,24
385,6
386,29
387,61
388,63
389,7
390,82
391,87
392,33
393,38
394,17
395,39
396,64
397,10
398,65
399,47
400,30
401,27
402,20
403,34
404,88
405,5
406,19
407,43
408,66
409,16
410,37
411,99
412,10
413,68
414,27
415,38
416,74
417,93
418,27
419,66
420,13
421,52
422,99
423,78
424,36
425,100
426,37
427,3
428,46
429,86
430,52
431,36
432,71
433,92
434,50
435,92
436,94
437,83
438,32
439,59
440,67
441,13
442,64
443,7
444,17
445,31
446,30
447,11
448,87
449,30
450,65
451,58
452,60
453,9
454,21
455,2
456,31
457,59
458,78
459,14
460,47
461,59
462,40
463,97
464,1
465,3
466,76
467,71
468,65
469,16
470,67
471,39
472,60
473,1
474,35
475,66
476,93
477,40
478,71
479,38
480,10
481,19
482,9
483,99
484,91
485,14
486,67
487,13
488,39
489,14
490,49
491,77
492,29
493,67
494,49
495,42
496,22
497,68
498,77
499,10
500,31
